…
df_behavior$antibiotic <- factor(df_behavior$antibiotic, levels = c("zero", "low", "high"))
df_behavior$reinoculation <- factor(df_behavior$reinoculation)
df_behavior$reinoculation <- relevel(df_behavior$reinoculation, ref = "no")
df_behavior$year <- factor(df_behavior$year)

df_behavior
```

    ## # A tibble: 42 × 9
    ##    arena treatment antibiotic reinoculation year  nb.of.bump nb.of.avoidance
    ##    <dbl> <chr>     <fct>      <fct>         <fct>      <int>           <int>
    ##  1     5 zero_no   zero       no            2024           7               0
    ##  2     8 zero_no   zero       no            2024          16               7
    ##  3    13 zero_no   zero       no            2024          10               0
    ##  4    40 zero_no   zero       no            2025           9               1
    ##  5    41 zero_no   zero       no            2025           5               3
    ##  6    42 zero_no   zero       no            2025          15               3
    ##  7    43 zero_no   zero       no            2025           6               0
    ##  8     2 low_no    low        no            2024          26               0
    ##  9    14 low_no    low        no            2024          19               2
    ## 10    15 low_no    low        no            2024          11               2
    ## # ℹ 32 more rows
    ## # ℹ 2 more variables: nb.of.head.to.head <int>, nb.of.touch <int>
…
colnames(df_interind)<- c("treatment", "antibiotic", "reinoculation",
                   "year", "arena", "mean.dist")

df_interind <- df_interind %>%
  mutate(treatment = factor(treatment),      
    treatment = relevel(treatment, ref = "zero_no"),
    antibiotic = factor(antibiotic, levels = c("zero", "low", "high")),
    reinoculation = factor(reinoculation),
    reinoculation = relevel(reinoculation, ref = "no"),
    year = factor(year)   
  )
df_interind
```

    ## # A tibble: 42 × 6
    ##    treatment antibiotic reinoculation year  arena mean.dist
    ##    <fct>     <fct>      <fct>         <fct> <dbl>     <dbl>
    ##  1 low_yes   low        yes           2024      1      4.46
    ##  2 low_no    low        no            2024      2      4.80
    ##  3 high_no   high       no            2024      3      5.58
    ##  4 high_yes  high       yes           2024      4      4.20
    ##  5 zero_no   zero       no            2024      5      4.64
    ##  6 low_yes   low        yes           2024      6      6.49
    ##  7 high_no   high       no            2024      7      4.09
    ##  8 zero_no   zero       no            2024      8      5.43
    ##  9 high_no   high       no            2024     10      2.42
    ## 10 high_yes  high       yes           2024     11      4.78
    ## # ℹ 32 more rows
…
df_move <- df_move %>%
  mutate(treatment = factor(treatment), 
    treatment = relevel(treatment, ref = "zero_no"),
    antibiotic = factor(antibiotic, levels = c("zero", "low", "high")),
    reinoculation = factor(reinoculation),
    reinoculation = relevel(reinoculation, ref = "no"),
    year = factor(year), 
    arena = factor(arena)
  )
df_move
```

    ## # A tibble: 84 × 7
    ##    treatment antibiotic reinoculation year  arena prop.time.moving average.speed
    ##    <fct>     <fct>      <fct>         <fct> <fct>            <dbl>         <dbl>
    ##  1 low_yes   low        yes           2024  1               0.0314         0.104
    ##  2 low_yes   low        yes           2024  1               0.510          0.994
    ##  3 low_no    low        no            2024  2               0.695          1.31 
    ##  4 low_no    low        no            2024  2               0.751          1.62 
    ##  5 high_no   high       no            2024  3               0.107          0.216
    ##  6 high_no   high       no            2024  3               0.561          1.03 
    ##  7 high_yes  high       yes           2024  4               0.423          0.645
    ##  8 high_yes  high       yes           2024  4               0.445          0.667
    ##  9 zero_no   zero       no            2024  5               0.238          0.412
    ## 10 zero_no   zero       no            2024  5               0.102          0.216
    ## # ℹ 74 more rows
…
df_pca_7
```

    ## # A tibble: 42 × 12
    ##    year  arena treatment antibiotic reinoculation moy_prop_time_moving
    ##    <fct> <fct> <fct>     <fct>      <fct>                        <dbl>
    ##  1 2024  1     low_yes   low        yes                         0.271 
    ##  2 2024  2     low_no    low        no                          0.723 
    ##  3 2024  3     high_no   high       no                          0.334 
    ##  4 2024  4     high_yes  high       yes                         0.434 
    ##  5 2024  5     zero_no   zero       no                          0.170 
    ##  6 2024  6     low_yes   low        yes                         0.0343
    ##  7 2024  7     high_no   high       no                          0.273 
    ##  8 2024  8     zero_no   zero       no                          0.677 
    ##  9 2024  10    high_no   high       no                          0.212 
    ## 10 2024  11    high_yes  high       yes                         0.498 
    ## # ℹ 32 more rows
    ## # ℹ 6 more variables: moy_average_speed <dbl>, nb.of.bump <int>,
    ## #   nb.of.avoidance <int>, nb.of.head.to.head <int>, nb.of.touch <int>,
    ## #   mean.dist <dbl>
…
